[{
  "posts": [
      "id": 100,
      "name": "Бухгалтерия",
      "url": "/rubricator/buhgalterija/",
      "children": [{
        "id": 2,
        "name": "Учетная политика",
        "url": "/rubricator/uchetnaja-politika/",
        "children": [],
        "count": 0
      }, {
        "id": 5,
        "name": "Бухгалтерский учет",
        "url": "/rubricator/buhgalterskij-uchet/",
        "children": [],
        "count": 14
      }, {
        "id": 10,
        "name": "ВЭД",
        "url": "/rubricator/ved/",
        "children": [],
        "count": 5
      }, {
        "id": 16,
        "name": "Первичка",
        "url": "/rubricator/pervichnye-dokumenty/",
        "children": [],
        "count": 0
      }, {
        "id": 19,
        "name": "Аудит",
        "url": "/rubricator/audit/",
        "children": [],
        "count": 1
      }, {
        "id": 25,
        "name": "Основные средства",
        "url": "/rubricator/osnovnye-sredstva/",
        "children": [],
        "count": 0
      }, {
        "id": 31,
        "name": "Онлайн-кассы",
        "url": "/rubricator/onlajn-kassy/",
        "children": [],
        "count": 6
      }, {
        "id": 37,
        "name": "Обособленные подразделения, филиалы",
        "url": "/rubricator/obosoblennye-podrazdelenija-filialy/",
        "children": [],
        "count": 1
      }, {
        "id": 63,
        "name": "Учет займов и кредитов",
        "url": "/rubricator/zajmy-kredity/",
        "children": [],
        "count": 0
      }, {
        "id": 149,
        "name": "Уставный капитал",
        "url": "/rubricator/ustavnyj-kapital/",
        "children": [],
        "count": 0
      }, {
        "id": 158,
        "name": "МСФО",
        "url": "/rubricator/msfo/",
        "children": [],
        "count": 1
      }, {
        "id": 160,
        "name": "Делопроизводство",
        "url": "/rubricator/deloproizvodstvo/",
        "children": [],
        "count": 0
      }, {
        "id": 263,
        "name": "Обзоры для бухгалтера",
        "url": "/rubricator/obzory-dlya-buhgaltera/",
        "children": [],
        "count": 0
      }, {
        "id": 312,
        "name": "Блокировка счетов 115-ФЗ",
        "url": "/rubricator/312/",
        "children": [],
        "count": 1
      }, {
        "id": 318,
        "name": "Расчеты с работниками",
        "url": "/rubricator/rascheti/",
        "children": [{
          "id": 9,
          "name": "Зарплата",
          "url": "/rubricator/zarplata/",
          "children": [],
          "count": 0
        }, {
          "id": 218,
          "name": "Социальные пособия",
          "url": "/rubricator/sotsialnye-posobija/",
          "children": [],
          "count": 0
        }, {
          "id": 319,
          "name": "Премии",
          "url": "/rubricator/premii/",
          "children": [],
          "count": 0
        }, {
          "id": 320,
          "name": "Подотчет, командировки",
          "url": "/rubricator/podotchet-komandirovki/",
          "children": [],
          "count": 0
        }, {
          "id": 321,
          "name": "Отпускные",
          "url": "/rubricator/otpusknie/",
          "children": [],
          "count": 0
        }, {
          "id": 322,
          "name": "Компенсация за неиспользованный отпуск",
          "url": "/rubricator/kompensaciya-za-otpusk/",
          "children": [],
          "count": 0
        }, {
          "id": 441,
          "name": "Декретный отпуск",
          "url": "/rubricator/441/",
          "children": [],
          "count": 0
        }, {
          "id": 442,
          "name": "Больничные",
          "url": "/rubricator/442/",
          "children": [],
          "count": 0
        }, {
          "id": 443,
          "name": "Детские пособия",
          "url": "/rubricator/443/",
          "children": [],
          "count": 0
        }],
        "count": 13
      }, {
        "id": 449,
        "name": "Дебиторская задолженность",
        "url": "/rubricator/449/",
        "children": [],
        "count": 1
      }, {
        "id": 450,
        "name": "Бухгалтерский аутсорсинг",
        "url": "/rubricator/450/",
        "children": [],
        "count": 1
      }, {
        "id": 453,
        "name": "Кредиторская задолженность",
        "url": "/rubricator/453/",
        "children": [],
        "count": 0
      }, {
        "id": 454,
        "name": "НМА",
        "url": "/rubricator/nma/",
        "children": [],
        "count": 0
      }, {
        "id": 455,
        "name": "Кассовые операции",
        "url": "/rubricator/kassovije-operatsii/",
        "children": [],
        "count": 2
      }, {
        "id": 456,
        "name": "Справочно-правовые системы",
        "url": "/rubricator/spravochno-pravovije-sistemi/",
        "children": [],
        "count": 2
      }, {
        "id": 471,
        "name": "Управленческий учет",
        "url": "/rubricator/upravlencheskiy-uchet/",
        "children": [],
        "count": 1
      }],
      "count": 101
    },
    {
      "id": 101,
      "name": "Банки",
      "url": "/rubricator/banki/",
      "children": [{
        "id": 70,
        "name": "Интернет-банкинг",
        "url": "/rubricator/internet-banking/",
        "children": [],
        "count": 0
      }, {
        "id": 71,
        "name": "Платежные системы",
        "url": "/rubricator/platezhnye-sistemy/",
        "children": [{
          "id": 451,
          "name": "Система быстрых платежей",
          "url": "/rubricator/451/",
          "children": [],
          "count": 0
        }],
        "count": 0
      }, {
        "id": 72,
        "name": "Кредиты",
        "url": "/rubricator/kredity/",
        "children": [],
        "count": 0
      }, {
        "id": 75,
        "name": "Ценные бумаги",
        "url": "/rubricator/tsennye-bumagi/",
        "children": [],
        "count": 0
      }, {
        "id": 93,
        "name": "Валютные операции",
        "url": "/rubricator/valjutnye-operatsii/",
        "children": [],
        "count": 5
      }, {
        "id": 133,
        "name": "Вклады",
        "url": "/rubricator/vklady/",
        "children": [],
        "count": 0
      }, {
        "id": 136,
        "name": "Ипотека",
        "url": "/rubricator/ipotechnoe-kreditovanie/",
        "children": [],
        "count": 0
      }, {
        "id": 138,
        "name": "Валютный рынок",
        "url": "/rubricator/valjutnyj-rynok/",
        "children": [],
        "count": 0
      }, {
        "id": 228,
        "name": "Электронные деньги",
        "url": "/rubricator/elektronnye-dengi-raschety-elektronnymi-dengami/",
        "children": [],
        "count": 1
      }, {
        "id": 288,
        "name": "Криптовалюта",
        "url": "/rubricator/288/",
        "children": [],
        "count": 0
      }, {
        "id": 446,
        "name": "Наличные деньги",
        "url": "/rubricator/446/",
        "children": [],
        "count": 1
      }, {
        "id": 457,
        "name": "Банковские карты",
        "url": "/rubricator/bankovskije-karti/",
        "children": [],
        "count": 0
      }, {
        "id": 458,
        "name": "Банковские приложения",
        "url": "/rubricator/bankovskije-prilojeniya/",
        "children": [],
        "count": 0
      }],
      "count": 0
    },
    {
      "id": 102,
      "name": "Автоматизация учета",
      "url": "/rubricator/avtomatizatsija-ucheta/",
      "children": [{
        "id": 43,
        "name": "1С",
        "url": "/rubricator/1c/",
        "children": [],
        "count": 4
      }, {
        "id": 73,
        "name": "Бухгалтерские программы",
        "url": "/rubricator/buhgalterskie-programmy/",
        "children": [],
        "count": 1
      }, {
        "id": 230,
        "name": "ЭДО",
        "url": "/rubricator/elektronnyj-dokumentooborot-elektronnaja-otchetnost/",
        "children": [],
        "count": 2
      }, {
        "id": 234,
        "name": "Онлайн-бухгалтерии",
        "url": "/rubricator/onlajn-buhgalterii/",
        "children": [],
        "count": 0
      }, {
        "id": 275,
        "name": "Электронная отчетность",
        "url": "/rubricator/elektronnaja-otchetnost/",
        "children": [],
        "count": 0
      }, {
        "id": 460,
        "name": "Автоматизация финансового планирования",
        "url": "/rubricator/avtomatizatsija-finansovogo-planirovaniya/",
        "children": [],
        "count": 0
      }, {
        "id": 478,
        "name": "CRM",
        "url": "/rubricator/crm/",
        "children": [],
        "count": 0
      }],
      "count": 2
    },
    {
      "id": 103,
      "name": "Право",
      "url": "/rubricator/pravo/",
      "children": [{
        "id": 15,
        "name": "УК РФ",
        "url": "/rubricator/uk-rf/",
        "children": [],
        "count": 2
      }, {
        "id": 17,
        "name": "Трудовое право",
        "url": "/rubricator/trudovoe-pravo/",
        "children": [],
        "count": 3
      }, {
        "id": 20,
        "name": "НК РФ",
        "url": "/rubricator/nk-rf/",
        "children": [{
          "id": 199,
          "name": "Налоговые споры",
          "url": "/rubricator/sudebnaja-praktika-po-nalogovym-sporam/",
          "children": [],
          "count": 0
        }],
        "count": 0
      }, {
        "id": 108,
        "name": "КоАП РФ",
        "url": "/rubricator/koap-rf/",
        "children": [],
        "count": 0
      }, {
        "id": 130,
        "name": "ГК РФ",
        "url": "/rubricator/gk-rf/",
        "children": [{
          "id": 479,
          "name": "Авторское право",
          "url": "/rubricator/479/",
          "children": [],
          "count": 0
        }, {
          "id": 480,
          "name": "Товарный знак",
          "url": "/rubricator/480/",
          "children": [],
          "count": 0
        }],
        "count": 0
      }, {
        "id": 155,
        "name": "Полиция",
        "url": "/rubricator/policiya/",
        "children": [],
        "count": 2
      }, {
        "id": 157,
        "name": "Законопроекты",
        "url": "/rubricator/zakonoproekti/",
        "children": [],
        "count": 0
      }, {
        "id": 164,
        "name": "Коллекторы",
        "url": "/rubricator/kollektori/",
        "children": [],
        "count": 0
      }, {
        "id": 167,
        "name": "Семейный кодекс",
        "url": "/rubricator/semejij-kodeks/",
        "children": [],
        "count": 0
      }, {
        "id": 168,
        "name": "Жилищное законодательство",
        "url": "/rubricator/zhilischnoe-zakonodatelstvo/",
        "children": [],
        "count": 0
      }, {
        "id": 169,
        "name": "Земельное законодательство",
        "url": "/rubricator/zemelnoe-zakonodatelstvo/",
        "children": [],
        "count": 0
      }, {
        "id": 173,
        "name": "Экологическое законодательство",
        "url": "/rubricator/ekologicheskoe-zakonodatelstvo/",
        "children": [],
        "count": 0
      }, {
        "id": 174,
        "name": "Исполнительное производство",
        "url": "/rubricator/ispolnitelnoe-proizvodstvo/",
        "children": [],
        "count": 0
      }, {
        "id": 175,
        "name": "Таможенное право",
        "url": "/rubricator/tamozhennoe-pravo/",
        "children": [],
        "count": 0
      }, {
        "id": 196,
        "name": "Нотариат",
        "url": "/rubricator/notariat/",
        "children": [],
        "count": 0
      }, {
        "id": 202,
        "name": "Прокуроры",
        "url": "/rubricator/prokurori/",
        "children": [],
        "count": 0
      }, {
        "id": 207,
        "name": "Права потребителей",
        "url": "/rubricator/prava-potrebitelej/",
        "children": [],
        "count": 0
      }, {
        "id": 212,
        "name": "Банкротство",
        "url": "/rubricator/bankrotstvo/",
        "children": [],
        "count": 4
      }, {
        "id": 225,
        "name": "Госзакупки",
        "url": "/rubricator/goszakupki/",
        "children": [],
        "count": 1
      }, {
        "id": 262,
        "name": "Антимонопольное право",
        "url": "/rubricator/antimonopolnoe-pravo/",
        "children": [],
        "count": 1
      }, {
        "id": 276,
        "name": "Конституционное право",
        "url": "/rubricator/konstitutsionnoe-pravo/",
        "children": [],
        "count": 0
      }, {
        "id": 287,
        "name": "Защита персональных данных",
        "url": "/rubricator/zashita-personalnih-dannih/",
        "children": [],
        "count": 2
      }, {
        "id": 438,
        "name": "Субсидиарная ответственность",
        "url": "/rubricator/438/",
        "children": [],
        "count": 0
      }, {
        "id": 461,
        "name": "Адвокат",
        "url": "/rubricator/advokat/",
        "children": [],
        "count": 0
      }, {
        "id": 472,
        "name": "Арендные отношения",
        "url": "/rubricator/472/",
        "children": [],
        "count": 1
      }, {
        "id": 475,
        "name": "Авторское право",
        "url": "/rubricator/475/",
        "children": [],
        "count": 1
      }],
      "count": 21
    },
    {
      "id": 105,
      "name": "Налоги, взносы, пошлины",
      "url": "/rubricator/nalogi-vznosy-poshlini/",
      "children": [{
        "id": 3,
        "name": "Налог на прибыль",
        "url": "/rubricator/nalog-na-pribyl/",
        "children": [],
        "count": 2
      }, {
        "id": 4,
        "name": "НДС",
        "url": "/rubricator/nds/",
        "children": [{
          "id": 161,
          "name": "Счета-фактуры",
          "url": "/rubricator/scheta-fakturi/",
          "children": [],
          "count": 0
        }, {
          "id": 162,
          "name": "Книга покупок и книга продаж",
          "url": "/rubricator/kniga-pokupok-i-kniga-prodazh/",
          "children": [],
          "count": 0
        }, {
          "id": 279,
          "name": "НДС по электронным услугам иностранных организаций",
          "url": "/rubricator/nds-po-elektronnym-uslugam-inostrannyh-organizatsij/",
          "children": [],
          "count": 0
        }, {
          "id": 280,
          "name": "НДС: экспорт и импорт товаров и услуг",
          "url": "/rubricator/nds-eksport-i-import-tovarov-i-uslug/",
          "children": [],
          "count": 0
        }, {
          "id": 289,
          "name": "Налоговый агент по НДС",
          "url": "/rubricator/289/",
          "children": [],
          "count": 0
        }],
        "count": 15
      }, {
        "id": 7,
        "name": "Налог на имущество",
        "url": "/rubricator/nalog-na-imuschestvo/",
        "children": [{
          "id": 273,
          "name": "Налог на имущество организаций",
          "url": "/rubricator/nalog-na-imuschestvo-organizatsij/",
          "children": [],
          "count": 0
        }, {
          "id": 274,
          "name": "Налог на имущество физических лиц",
          "url": "/rubricator/nalog-na-imuschestvo-fizicheskih-lits/",
          "children": [],
          "count": 0
        }],
        "count": 2
      }, {
        "id": 27,
        "name": "НДФЛ",
        "url": "/rubricator/ndfl/",
        "children": [{
          "id": 241,
          "name": "Имущественный вычет",
          "url": "/rubricator/imuschestvenniy-vichet/",
          "children": [],
          "count": 0
        }, {
          "id": 242,
          "name": "Стандартный вычет",
          "url": "/rubricator/standartniy-vychet/",
          "children": [],
          "count": 0
        }, {
          "id": 256,
          "name": "Патенты для иностранцев",
          "url": "/rubricator/patenty-dlja-inostrancev/",
          "children": [],
          "count": 0
        }, {
          "id": 267,
          "name": "Социальный вычет",
          "url": "/rubricator/sotsialniy-vychet/",
          "children": [],
          "count": 0
        }],
        "count": 12
      }, {
        "id": 30,
        "name": "Транспортный налог",
        "url": "/rubricator/transportnyj-nalog/",
        "children": [],
        "count": 1
      }, {
        "id": 79,
        "name": "Акцизы",
        "url": "/rubricator/aktsizy/",
        "children": [],
        "count": 0
      }, {
        "id": 82,
        "name": "Оптимизация налогообложения",
        "url": "/rubricator/optimizatsija-nalogooblozhenija/",
        "children": [{
          "id": 439,
          "name": "Дробление бизнеса",
          "url": "/rubricator/439/",
          "children": [],
          "count": 0
        }, {
          "id": 469,
          "name": "Налоговые схемы",
          "url": "/rubricator/nalogovije-shemi/",
          "children": [],
          "count": 0
        }, {
          "id": 470,
          "name": "Недействительная сделка",
          "url": "/rubricator/nedejstvitelnaya-sdelka/",
          "children": [],
          "count": 0
        }],
        "count": 22
      }, {
        "id": 83,
        "name": "Новости ФНС",
        "url": "/rubricator/fns-nalogovaja-inspektsija/",
        "children": [],
        "count": 0
      }, {
        "id": 97,
        "name": "Налоговые штрафы",
        "url": "/rubricator/nalogovye-shtrafi/",
        "children": [],
        "count": 0
      }, {
        "id": 107,
        "name": "Земельный налог",
        "url": "/rubricator/zemelnyj-nalog/",
        "children": [],
        "count": 0
      }, {
        "id": 110,
        "name": "НДПИ и НДД",
        "url": "/rubricator/ndpi/",
        "children": [],
        "count": 0
      }, {
        "id": 115,
        "name": "Водный налог",
        "url": "/rubricator/vodnyj-nalog/",
        "children": [],
        "count": 0
      }, {
        "id": 118,
        "name": "Офшоры и ОЭЗ",
        "url": "/rubricator/ofshori-oez/",
        "children": [],
        "count": 0
      }, {
        "id": 119,
        "name": "Госпошлина",
        "url": "/rubricator/gosposhlina/",
        "children": [],
        "count": 0
      }, {
        "id": 213,
        "name": "Страховые взносы",
        "url": "/rubricator/strahovye-vznosy/",
        "children": [{
          "id": 214,
          "name": "Взносы в ФСС",
          "url": "/rubricator/vznosy-fss/",
          "children": [],
          "count": 0
        }, {
          "id": 215,
          "name": "Взносы в ПФР",
          "url": "/rubricator/vznosy-pfr/",
          "children": [],
          "count": 0
        }, {
          "id": 217,
          "name": "Взносы в ФОМС",
          "url": "/rubricator/vznosy-foms/",
          "children": [],
          "count": 0
        }, {
          "id": 328,
          "name": "Взносы на травматизм",
          "url": "/rubricator/vznosi-na-travmatizm/",
          "children": [],
          "count": 0
        }],
        "count": 10
      }, {
        "id": 233,
        "name": "Контролируемые сделки",
        "url": "/rubricator/kontroliruemye-sdelki/",
        "children": [],
        "count": 2
      }, {
        "id": 255,
        "name": "Утилизационный сбор",
        "url": "/rubricator/utilizatsionnyj-sbor/",
        "children": [],
        "count": 0
      }, {
        "id": 257,
        "name": "Торговый сбор",
        "url": "/rubricator/torgovyj-sbor/",
        "children": [],
        "count": 0
      }, {
        "id": 268,
        "name": "Система Платон",
        "url": "/rubricator/plata-s-bolshegruznyh-avtomobilej-sistema-platon/",
        "children": [],
        "count": 0
      }, {
        "id": 270,
        "name": "Проверка контрагентов",
        "url": "/rubricator/proverka-kontragentov/",
        "children": [],
        "count": 2
      }, {
        "id": 281,
        "name": "Курортный сбор",
        "url": "/rubricator/kurortnyj-sbor/",
        "children": [],
        "count": 0
      }, {
        "id": 285,
        "name": "Экологические платежи",
        "url": "/rubricator/ekologicheskie-platezhi/",
        "children": [],
        "count": 0
      }, {
        "id": 308,
        "name": "Выбор системы налогообложения",
        "url": "/rubricator/308/",
        "children": [],
        "count": 0
      }, {
        "id": 309,
        "name": "КИК",
        "url": "/rubricator/kik/",
        "children": [],
        "count": 0
      }, {
        "id": 327,
        "name": "Отмененные налоги",
        "url": "/rubricator/otmenennie-nalogi/",
        "children": [{
          "id": 6,
          "name": "ЕСН",
          "url": "/rubricator/esn/",
          "children": [],
          "count": 0
        }, {
          "id": 23,
          "name": "Налог с продаж",
          "url": "/rubricator/nalog-s-prodazh/",
          "children": [],
          "count": 0
        }, {
          "id": 62,
          "name": "Налог на рекламу",
          "url": "/rubricator/nalog-na-reklamu/",
          "children": [],
          "count": 0
        }, {
          "id": 123,
          "name": "Налог на наследование",
          "url": "/rubricator/nalog-na-nasledovanie/",
          "children": [],
          "count": 0
        }],
        "count": 0
      }, {
        "id": 445,
        "name": "Налоговые изменения 2021",
        "url": "/rubricator/445/",
        "children": [],
        "count": 4
      }],
      "count": 6
    },
    {
      "id": 106,
      "name": "Свой бизнес",
      "url": "/rubricator/svoj-biznes/",
      "children": [{
        "id": 57,
        "name": "Менеджмент",
        "url": "/rubricator/menedzhment/",
        "children": [],
        "count": 1
      }, {
        "id": 59,
        "name": "Маркетинг",
        "url": "/rubricator/marketing/",
        "children": [],
        "count": 2
      }, {
        "id": 60,
        "name": "Управление финансами",
        "url": "/rubricator/upravlenie-finansami/",
        "children": [],
        "count": 6
      }, {
        "id": 65,
        "name": "Регистрация бизнеса",
        "url": "/rubricator/registratsija-biznesa/",
        "children": [{
          "id": 467,
          "name": "Реорганизация",
          "url": "/rubricator/reorganizatsija/",
          "children": [],
          "count": 0
        }, {
          "id": 468,
          "name": "Ликвидация",
          "url": "/rubricator/likvidatsija/",
          "children": [],
          "count": 0
        }],
        "count": 0
      }, {
        "id": 76,
        "name": "Страхование",
        "url": "/rubricator/strahovanie/",
        "children": [],
        "count": 0
      }, {
        "id": 85,
        "name": "Личные финансы",
        "url": "/rubricator/lichnye-finansi/",
        "children": [],
        "count": 0
      }, {
        "id": 91,
        "name": "Бизнес-психология",
        "url": "/rubricator/biznes-psihologija/",
        "children": [],
        "count": 7
      }, {
        "id": 92,
        "name": "Реклама",
        "url": "/rubricator/reklama/",
        "children": [],
        "count": 0
      }, {
        "id": 165,
        "name": "Инвестиции",
        "url": "/rubricator/investitsii/",
        "children": [],
        "count": 2
      }, {
        "id": 206,
        "name": "Малый бизнес",
        "url": "/rubricator/malyj-biznes/",
        "children": [],
        "count": 0
      }, {
        "id": 329,
        "name": "Индивидуальный предприниматель",
        "url": "/rubricator/individualniy-predprinimatel/",
        "children": [],
        "count": 4
      }, {
        "id": 462,
        "name": "Коды ОКВЭД",
        "url": "/rubricator/kodi-okved/",
        "children": [],
        "count": 0
      }, {
        "id": 463,
        "name": "Субсидии для бизнеса",
        "url": "/rubricator/subsidii-dlya-biznesa/",
        "children": [],
        "count": 0
      }, {
        "id": 466,
        "name": "КФХ",
        "url": "/rubricator/kfh/",
        "children": [],
        "count": 0
      }],
      "count": 3
    },
    {
      "id": 120,
      "name": "Пенсии",
      "url": "/rubricator/pensii/",
      "children": [],
      "count": 0
    },
    {
      "id": 126,
      "name": "Отраслевой учет",
      "url": "/rubricator/otraslevoj-uchet-i-spetsrezhimy/",
      "children": [{
        "id": 66,
        "name": "Учет в торговле",
        "url": "/rubricator/uchet-v-torgovle/",
        "children": [],
        "count": 0
      }, {
        "id": 67,
        "name": "Учет в строительстве",
        "url": "/rubricator/uchet-v-stroitelstve/",
        "children": [],
        "count": 2
      }, {
        "id": 88,
        "name": "Игорный бизнес",
        "url": "/rubricator/igornyj-biznes/",
        "children": [],
        "count": 0
      }, {
        "id": 109,
        "name": "Учет в госсекторе",
        "url": "/rubricator/uchet-v-gossektore/",
        "children": [],
        "count": 0
      }, {
        "id": 112,
        "name": "Учет в некоммерческих организациях",
        "url": "/rubricator/uchet-v-nekommercheskih-organizatsijah/",
        "children": [],
        "count": 3
      }, {
        "id": 127,
        "name": "Учет в СМИ",
        "url": "/rubricator/uchet-v-smi/",
        "children": [],
        "count": 0
      }, {
        "id": 128,
        "name": "Учет в туризме",
        "url": "/rubricator/uchet-v-turizme/",
        "children": [],
        "count": 0
      }, {
        "id": 129,
        "name": "Учет в медицине",
        "url": "/rubricator/uchet-v-meditsine/",
        "children": [],
        "count": 0
      }, {
        "id": 153,
        "name": "Учет в организациях общепите",
        "url": "/rubricator/uchet-v-organizatsijah-obschestvennogo-pitanija/",
        "children": [],
        "count": 0
      }, {
        "id": 269,
        "name": "ЕГАИС",
        "url": "/rubricator/egais/",
        "children": [],
        "count": 0
      }, {
        "id": 283,
        "name": "Учет в ЖКХ",
        "url": "/rubricator/uchet-v-zhkh/",
        "children": [],
        "count": 0
      }, {
        "id": 284,
        "name": "Маркировка товаров",
        "url": "/rubricator/markirovka-tovarov/",
        "children": [],
        "count": 2
      }, {
        "id": 333,
        "name": "ФГИС Меркурий",
        "url": "/rubricator/333/",
        "children": [],
        "count": 0
      }, {
        "id": 476,
        "name": "Прослеживаемость товаров",
        "url": "/rubricator/476/",
        "children": [],
        "count": 1
      }],
      "count": 1
    },
    {
      "id": 205,
      "name": "Экономика России",
      "url": "/rubricator/ekonomika-rossii/",
      "children": [{
        "id": 154,
        "name": "Государственные ведомства",
        "url": "/rubricator/gosudarstvennie-vedomstva/",
        "children": [],
        "count": 0
      }, {
        "id": 204,
        "name": "Финансовый кризис",
        "url": "/rubricator/finansovyj-krizis/",
        "children": [],
        "count": 0
      }, {
        "id": 222,
        "name": "Экономические преступления",
        "url": "/rubricator/ekonomicheskie-prestuplenija/",
        "children": [{
          "id": 477,
          "name": "Мошенничество",
          "url": "/rubricator/477/",
          "children": [],
          "count": 0
        }],
        "count": 0
      }],
      "count": 0
    },
    {
      "id": 260,
      "name": "Политика",
      "url": "/rubricator/politika/",
      "children": [],
      "count": 0
    },
    {
      "id": 290,
      "name": "Интернет и IT",
      "url": "/rubricator/internet/",
      "children": [],
      "count": 2
    },
    {
      "id": 295,
      "name": "Отчетность",
      "url": "/rubricator/otchetnost/",
      "children": [{
        "id": 124,
        "name": "Статистическая отчетность",
        "url": "/rubricator/statisticheskaja-otchetnost/",
        "children": [],
        "count": 0
      }, {
        "id": 239,
        "name": "Бухгалтерская отчетность",
        "url": "/rubricator/buhgalterskaja-otchetnost/",
        "children": [],
        "count": 0
      }, {
        "id": 300,
        "name": "Отчетность в ФСС",
        "url": "/rubricator/300/",
        "children": [],
        "count": 0
      }, {
        "id": 301,
        "name": "Налоговая отчетность",
        "url": "/rubricator/301/",
        "children": [{
          "id": 265,
          "name": "2-НДФЛ",
          "url": "/rubricator/2ndfl/",
          "children": [],
          "count": 0
        }, {
          "id": 266,
          "name": "3-НДФЛ",
          "url": "/rubricator/otchetnost-nalogoplatelschikov-ndfl-3ndfl/",
          "children": [],
          "count": 0
        }, {
          "id": 303,
          "name": "Декларация по НДС",
          "url": "/rubricator/303/",
          "children": [],
          "count": 0
        }, {
          "id": 304,
          "name": "Декларация по налогу на имущество",
          "url": "/rubricator/304/",
          "children": [],
          "count": 0
        }, {
          "id": 305,
          "name": "Декларация по налогу на прибыль",
          "url": "/rubricator/305/",
          "children": [],
          "count": 0
        }, {
          "id": 306,
          "name": "Декларация по ЕНВД",
          "url": "/rubricator/306/",
          "children": [],
          "count": 0
        }, {
          "id": 307,
          "name": "Декларация по УСН",
          "url": "/rubricator/307/",
          "children": [],
          "count": 0
        }, {
          "id": 310,
          "name": "РСВ",
          "url": "/rubricator/310/",
          "children": [],
          "count": 0
        }, {
          "id": 465,
          "name": "6-НДФЛ",
          "url": "/rubricator/6-ndfl/",
          "children": [],
          "count": 0
        }],
        "count": 0
      }, {
        "id": 311,
        "name": "Отчетность по экологии",
        "url": "/rubricator/311/",
        "children": [],
        "count": 0
      }, {
        "id": 323,
        "name": "Отчетность в ПФР",
        "url": "/rubricator/otchetnost-pfr/",
        "children": [],
        "count": 0
      }, {
        "id": 464,
        "name": "Сроки сдачи отчетности в 2020 году",
        "url": "/rubricator/sroki-sdachi-otchetnosti-v-2020-godu/",
        "children": [],
        "count": 0
      }],
      "count": 0
    },
    {
      "id": 296,
      "name": "Проверки",
      "url": "/rubricator/proverki/",
      "children": [{
        "id": 33,
        "name": "Налоговые проверки",
        "url": "/rubricator/nalogovye-proverki/",
        "children": [],
        "count": 24
      }, {
        "id": 259,
        "name": "Налоговый мониторинг",
        "url": "/rubricator/nalogovyj-monitoring/",
        "children": [],
        "count": 2
      }, {
        "id": 324,
        "name": "Проверки МЧС",
        "url": "/rubricator/proverki-mchs/",
        "children": [],
        "count": 0
      }, {
        "id": 325,
        "name": "Проверки трудовой инспекции",
        "url": "/rubricator/proverki-trudovoy-inspekcii/",
        "children": [],
        "count": 1
      }],
      "count": 4
    },
    {
      "id": 297,
      "name": "Спецрежимы",
      "url": "/rubricator/specrejimi/",
      "children": [{
        "id": 8,
        "name": "ЕНВД",
        "url": "/rubricator/envd/",
        "children": [],
        "count": 1
      }, {
        "id": 29,
        "name": "УСН",
        "url": "/rubricator/usn/",
        "children": [],
        "count": 2
      }, {
        "id": 117,
        "name": "ЕСХН",
        "url": "/rubricator/eshn/",
        "children": [],
        "count": 0
      }, {
        "id": 235,
        "name": "ПСН",
        "url": "/rubricator/psn/",
        "children": [],
        "count": 0
      }, {
        "id": 331,
        "name": "Самозанятые",
        "url": "/rubricator/samozanyatie/",
        "children": [],
        "count": 5
      }],
      "count": 0
    },
    {
      "id": 299,
      "name": "Кадры",
      "url": "/rubricator/kadri/",
      "children": [{
        "id": 58,
        "name": "Управление персоналом (аутсорсинг, аутстаффинг)",
        "url": "/rubricator/upravlenie-personalom/",
        "children": [],
        "count": 2
      }, {
        "id": 197,
        "name": "Охрана труда",
        "url": "/rubricator/ohrana-truda/",
        "children": [],
        "count": 2
      }, {
        "id": 278,
        "name": "Кадровый учет",
        "url": "/rubricator/kadrovyj-uchet/",
        "children": [],
        "count": 8
      }, {
        "id": 330,
        "name": "Трудовые отношения",
        "url": "/rubricator/trudovie-otnosheniya/",
        "children": [],
        "count": 5
      }, {
        "id": 447,
        "name": "Электронные трудовые книжки",
        "url": "/rubricator/447/",
        "children": [],
        "count": 0
      }, {
        "id": 474,
        "name": "Иностранные работники",
        "url": "/rubricator/inostrannie-rabotniki/",
        "children": [],
        "count": 4
      }],
      "count": 5
    },
    {
      "id": 313,
      "name": "Бухгалтеры",
      "url": "/rubricator/buhgalteri/",
      "children": [{
        "id": 64,
        "name": "Главбух: права, обязанности,  передача дел",
        "url": "/rubricator/glavbuh-prava-objazanosti--peredacha-del/",
        "children": [],
        "count": 0
      }, {
        "id": 314,
        "name": "Психология для бухгалтера",
        "url": "/rubricator/314/",
        "children": [],
        "count": 1
      }, {
        "id": 315,
        "name": "Карьера бухгалтера",
        "url": "/rubricator/315/",
        "children": [],
        "count": 2
      }, {
        "id": 316,
        "name": "Обучение для бухгалтеров",
        "url": "/rubricator/316/",
        "children": [{
          "id": 448,
          "name": " Онлайн-курсы для бухгалтеров и ИП",
          "url": "/rubricator/448/",
          "children": [],
          "count": 0
        }],
        "count": 1
      }, {
        "id": 317,
        "name": "Профстандарт «Бухгалтер»",
        "url": "/rubricator/317/",
        "children": [],
        "count": 0
      }],
      "count": 0
    },
    {
      "id": 452,
      "name": "Интервью",
      "url": "/rubricator/interview/",
      "children": [],
      "count": 0
    },
    {
      "id": 473,
      "name": "Общество. Люди. События",
      "url": "/rubricator/obshestvo-ludi-sobitiya/",
      "children": [],
      "count": 0
    }

]]
